…
```
## # A tibble: 1 x 1
##       n
##   <int>
## 1 34786
```

```r
deserts %>% 
  count(genus)
```

```
## # A tibble: 26 x 2
##    genus                n
##    <chr>            <int>
##  1 Ammodramus           2
##  2 Ammospermophilus   437
##  3 Amphispiza         303
##  4 Baiomys             46
##  5 Calamospiza         13
##  6 Callipepla          16
##  7 Campylorhynchus     50
##  8 Chaetodipus       6029
##  9 Cnemidophorus        2
## 10 Crotalus             2
## # ... with 16 more rows
```

```r
deserts %>% 
  count(species)
```

```
## # A tibble: 40 x 2
##    species             n
##    <chr>           <int>
##  1 albigula         1252
##  2 audubonii          75
##  3 baileyi          2891
##  4 bilineata         303
##  5 brunneicapillus    50
##  6 chlorurus          39
##  7 clarki              1
##  8 eremicus         1299
##  9 flavus           1597
## 10 fulvescens         75
## # ... with 30 more rows
```
…
```r
deserts %>%
  group_by(species) %>% 
  summarize(meanweight = mean(weight, na.rm=T)) %>% 
  arrange(desc(meanweight))
```

```
## `summarise()` ungrouping output (override with `.groups` argument)
```

```
## # A tibble: 40 x 2
##    species      meanweight
##    <fct>             <dbl>
##  1 albigula          159. 
##  2 spectabilis       120. 
##  3 spilosoma          93.5
##  4 hispidus           65.6
##  5 fulviventer        58.9
##  6 ochrognathus       55.4
##  7 ordii              48.9
##  8 merriami           43.2
##  9 baileyi            31.7
## 10 leucogaster        31.6
## # ... with 30 more rows
```
…
