…
2. Notice that we have some neutral superheros! Who are they?

```r
neutrals <- filter(superhero_info, alignment == "neutral")
neutrals
```

```
## # A tibble: 24 x 10
##    name  gender eye_color race  hair_color height publisher skin_color alignment
##    <chr> <chr>  <chr>     <chr> <chr>       <dbl> <chr>     <chr>      <chr>    
##  1 Biza~ Male   black     Biza~ Black         191 DC Comics white      neutral  
##  2 Blac~ Male   <NA>      God ~ <NA>           NA DC Comics <NA>       neutral  
##  3 Capt~ Male   brown     Human Brown          NA DC Comics <NA>       neutral  
##  4 Copy~ Female red       Muta~ White         183 Marvel C~ blue       neutral  
##  5 Dead~ Male   brown     Muta~ No Hair       188 Marvel C~ <NA>       neutral  
##  6 Deat~ Male   blue      Human White         193 DC Comics <NA>       neutral  
##  7 Etri~ Male   red       Demon No Hair       193 DC Comics yellow     neutral  
##  8 Gala~ Male   black     Cosm~ Black         876 Marvel C~ <NA>       neutral  
##  9 Glad~ Male   blue      Stro~ Blue          198 Marvel C~ purple     neutral  
## 10 Indi~ Female <NA>      Alien Purple         NA DC Comics <NA>       neutral  
## # ... with 14 more rows, and 1 more variable: weight <dbl>
```

## `superhero_info`
3. Let's say we are only interested in the variables name, alignment, and "race". How would you isolate these variables from `superhero_info`?

```r
newsuperhero_info <- select(superhero_info, name, alignment, race)
newsuperhero_info
```

```
## # A tibble: 734 x 3
##    name          alignment race             
##    <chr>         <chr>     <chr>            
##  1 A-Bomb        good      Human            
##  2 Abe Sapien    good      Icthyo Sapien    
##  3 Abin Sur      good      Ungaran          
##  4 Abomination   bad       Human / Radiation
##  5 Abraxas       bad       Cosmic Entity    
##  6 Absorbing Man bad       Human            
##  7 Adam Monroe   good      <NA>             
##  8 Adam Strange  good      Human            
##  9 Agent 13      good      <NA>             
## 10 Agent Bob     good      Human            
## # ... with 724 more rows
```

## Not Human
4. List all of the superheros that are not human.

```r
nonhums <- filter(newsuperhero_info, race!="Human")
nonhums
```

```
## # A tibble: 222 x 3
##    name         alignment race             
##    <chr>        <chr>     <chr>            
##  1 Abe Sapien   good      Icthyo Sapien    
##  2 Abin Sur     good      Ungaran          
##  3 Abomination  bad       Human / Radiation
##  4 Abraxas      bad       Cosmic Entity    
##  5 Ajax         bad       Cyborg           
##  6 Alien        bad       Xenomorph XX121  
##  7 Amazo        bad       Android          
##  8 Angel        good      Vampire          
##  9 Angel Dust   good      Mutant           
## 10 Anti-Monitor bad       God / Eternal    
## # ... with 212 more rows
```
…
9. OK, so are there more good guys or bad guys that are bald (personal interest)?

```r
filter(goodies, hair_color=="No Hair")
```

```
## # A tibble: 37 x 10
##    name  gender eye_color race  hair_color height publisher skin_color alignment
##    <chr> <chr>  <chr>     <chr> <chr>       <dbl> <chr>     <chr>      <chr>    
##  1 A-Bo~ Male   yellow    Human No Hair       203 Marvel C~ <NA>       good     
##  2 Abe ~ Male   blue      Icth~ No Hair       191 Dark Hor~ blue       good     
##  3 Abin~ Male   blue      Unga~ No Hair       185 DC Comics red        good     
##  4 Beta~ Male   <NA>      <NA>  No Hair       201 Marvel C~ <NA>       good     
##  5 Bish~ Male   brown     Muta~ No Hair       198 Marvel C~ <NA>       good     
##  6 Blac~ Male   brown     <NA>  No Hair       185 DC Comics <NA>       good     
##  7 Blaq~ <NA>   black     <NA>  No Hair        NA Marvel C~ <NA>       good     
##  8 Bloo~ Male   black     Muta~ No Hair        NA Marvel C~ <NA>       good     
##  9 Crim~ Male   brown     <NA>  No Hair       180 Marvel C~ <NA>       good     
## 10 Dona~ Male   green     Muta~ No Hair        NA IDW Publ~ green      good     
## # ... with 27 more rows, and 1 more variable: weight <dbl>
```

```r
filter(baddies, hair_color == "No Hair")
```

```
## # A tibble: 35 x 10
##    name  gender eye_color race  hair_color height publisher skin_color alignment
##    <chr> <chr>  <chr>     <chr> <chr>       <dbl> <chr>     <chr>      <chr>    
##  1 Abom~ Male   green     Huma~ No Hair     203   Marvel C~ <NA>       bad      
##  2 Abso~ Male   blue      Human No Hair     193   Marvel C~ <NA>       bad      
##  3 Alien Male   <NA>      Xeno~ No Hair     244   Dark Hor~ black      bad      
##  4 Anni~ Male   green     <NA>  No Hair     180   Marvel C~ <NA>       bad      
##  5 Anti~ Male   yellow    God ~ No Hair      61   DC Comics <NA>       bad      
##  6 Blac~ Male   black     Human No Hair     188   DC Comics <NA>       bad      
##  7 Bloo~ Male   white     <NA>  No Hair      30.5 Marvel C~ <NA>       bad      
##  8 Brai~ Male   green     Andr~ No Hair     198   DC Comics green      bad      
##  9 Dark~ Male   red       New ~ No Hair     267   DC Comics grey       bad      
## 10 Dart~ Male   yellow    Cybo~ No Hair     198   George L~ <NA>       bad      
## # ... with 25 more rows, and 1 more variable: weight <dbl>
```
…
## Height to Weight Ratio
13. It's easy to be strong when you are heavy and tall, but who is heavy and short? Which superheros have the highest height to weight ratio?

```r
superhero_info %>% 
  mutate(heightweightratio=height/weight) %>% 
  arrange(desc(heightweightratio))
```

```
## # A tibble: 734 x 11
##    name  gender eye_color race  hair_color height publisher skin_color alignment
##    <chr> <chr>  <chr>     <chr> <chr>       <dbl> <chr>     <chr>      <chr>    
##  1 Groot Male   yellow    Flor~ <NA>          701 Marvel C~ <NA>       good     
##  2 Gala~ Male   black     Cosm~ Black         876 Marvel C~ <NA>       neutral  
##  3 Fin ~ Male   red       Kaka~ No Hair       975 Marvel C~ green      good     
##  4 Long~ Male   blue      Human Blond         188 Marvel C~ <NA>       good     
##  5 Jack~ Male   blue      Human Brown          71 Dark Hor~ <NA>       good     
##  6 Rock~ Male   brown     Anim~ Brown         122 Marvel C~ <NA>       good     
##  7 Dash  Male   blue      Human Blond         122 Dark Hor~ <NA>       good     
##  8 Howa~ Male   brown     <NA>  Yellow         79 Marvel C~ <NA>       good     
##  9 Swarm Male   yellow    Muta~ No Hair       196 Marvel C~ yellow     bad      
## 10 Yoda  Male   brown     Yoda~ White          66 George L~ green      good     
## # ... with 724 more rows, and 2 more variables: weight <dbl>,
## #   heightweightratio <dbl>
```
…
14. How many superheros have a combination of accelerated healing, durability, and super strength?

```r
superhero_powers %>% 
  filter(accelerated_healing == TRUE) %>% 
  filter(durability == TRUE) %>% 
  filter(super_strength== TRUE)
```

```
## # A tibble: 97 x 168
##    hero_names agility accelerated_hea~ lantern_power_r~ dimensional_awa~
##    <chr>      <lgl>   <lgl>            <lgl>            <lgl>           
##  1 A-Bomb     FALSE   TRUE             FALSE            FALSE           
##  2 Abe Sapien TRUE    TRUE             FALSE            FALSE           
##  3 Angel      TRUE    TRUE             FALSE            FALSE           
##  4 Anti-Moni~ FALSE   TRUE             FALSE            TRUE            
##  5 Anti-Venom FALSE   TRUE             FALSE            FALSE           
##  6 Aquaman    TRUE    TRUE             FALSE            FALSE           
##  7 Arachne    TRUE    TRUE             FALSE            FALSE           
##  8 Archangel  TRUE    TRUE             FALSE            FALSE           
##  9 Ardina     TRUE    TRUE             FALSE            FALSE           
## 10 Ares       TRUE    TRUE             FALSE            FALSE           
## # ... with 87 more rows, and 163 more variables: cold_resistance <lgl>,
## #   durability <lgl>, stealth <lgl>, energy_absorption <lgl>, flight <lgl>,
## #   danger_sense <lgl>, underwater_breathing <lgl>, marksmanship <lgl>,
## #   weapons_master <lgl>, power_augmentation <lgl>, animal_attributes <lgl>,
## #   longevity <lgl>, intelligence <lgl>, super_strength <lgl>,
## #   cryokinesis <lgl>, telepathy <lgl>, energy_armor <lgl>,
## #   energy_blasts <lgl>, duplication <lgl>, size_changing <lgl>,
## #   density_control <lgl>, stamina <lgl>, astral_travel <lgl>,
## #   audio_control <lgl>, dexterity <lgl>, omnitrix <lgl>, super_speed <lgl>,
…
## `kinesis`
15. We are only interested in the superheros that do some kind of "kinesis". How would we isolate them from the `superhero_powers` data?

```r
superhero_powers %>% 
  select(hero_names, contains("kinesis")) %>% 
 filter_all(any_vars(.==TRUE))
```

```
## # A tibble: 112 x 10
##    hero_names cryokinesis electrokinesis telekinesis hyperkinesis hypnokinesis
##    <chr>      <lgl>       <lgl>          <lgl>       <lgl>        <lgl>       
##  1 Alan Scott FALSE       FALSE          FALSE       FALSE        TRUE        
##  2 Amazo      TRUE        FALSE          FALSE       FALSE        FALSE       
##  3 Apocalypse FALSE       FALSE          TRUE        FALSE        FALSE       
##  4 Aqualad    TRUE        FALSE          FALSE       FALSE        FALSE       
##  5 Beyonder   FALSE       FALSE          TRUE        FALSE        FALSE       
##  6 Bizarro    TRUE        FALSE          FALSE       FALSE        TRUE        
##  7 Black Abb~ FALSE       FALSE          TRUE        FALSE        FALSE       
##  8 Black Adam FALSE       FALSE          TRUE        FALSE        FALSE       
##  9 Black Lig~ FALSE       TRUE           FALSE       FALSE        FALSE       
## 10 Black Mam~ FALSE       FALSE          FALSE       FALSE        TRUE        
## # ... with 102 more rows, and 4 more variables: thirstokinesis <lgl>,
## #   biokinesis <lgl>, terrakinesis <lgl>, vitakinesis <lgl>
```
…
