…
**4. Your answer above doesn't tell the whole story since life expectancy varies by region. Make a summary that shows the min, mean, and max life expectancy by continent for all years represented in the data.**


```r
gapminder %>% 
  group_by(country, year) %>% 
  summarize(minlifeexp = min(lifeExp), maxlifeexp = max(lifeExp), avelifeexp = mean(lifeExp))
```

```
## `summarise()` has grouped output by 'country'. You can override using the `.groups` argument.
```

```
## # A tibble: 1,704 x 5
## # Groups:   country [142]
##    country      year minlifeexp maxlifeexp avelifeexp
##    <fct>       <int>      <dbl>      <dbl>      <dbl>
##  1 Afghanistan  1952       28.8       28.8       28.8
##  2 Afghanistan  1957       30.3       30.3       30.3
##  3 Afghanistan  1962       32.0       32.0       32.0
##  4 Afghanistan  1967       34.0       34.0       34.0
##  5 Afghanistan  1972       36.1       36.1       36.1
##  6 Afghanistan  1977       38.4       38.4       38.4
##  7 Afghanistan  1982       39.9       39.9       39.9
##  8 Afghanistan  1987       40.8       40.8       40.8
##  9 Afghanistan  1992       41.7       41.7       41.7
## 10 Afghanistan  1997       41.8       41.8       41.8
## # ... with 1,694 more rows
```
…
**7. Which countries have had the largest population growth since 1952?**

```r
gapminder%>%
  group_by(country)%>%
  filter(year==1952|year==2007)%>%
  mutate(pop_growth=pop-lag(pop,default = pop[1]))%>%
  arrange(desc(pop_growth))%>%
  select(country, pop_growth)
```

```
## # A tibble: 284 x 2
## # Groups:   country [142]
##    country       pop_growth
##    <fct>              <int>
##  1 China          762419569
##  2 India          738396331
##  3 United States  143586947
##  4 Indonesia      141495000
##  5 Brazil         133408087
##  6 Pakistan       127924057
##  7 Bangladesh     103561480
##  8 Nigeria        101912068
##  9 Mexico          78556574
## 10 Philippines     68638596
## # ... with 274 more rows
```
…
