…
6. Which country had the largest overall catch in the year 2000?

#### China ####


```r
new_fisheries %>%
  filter(year == 2000) %>% 
  group_by(country) %>% 
  summarize(sumcatch = sum(catch, na.rm = T)) %>% 
  arrange(desc(sumcatch))
```

```
## # A tibble: 193 x 2
##    country                  sumcatch
##    <fct>                       <dbl>
##  1 China                       25899
##  2 Russian Federation          12181
##  3 United States of America    11762
##  4 Japan                        8510
##  5 Indonesia                    8341
##  6 Peru                         7443
##  7 Chile                        6906
##  8 India                        6351
##  9 Thailand                     6243
## 10 Korea, Republic of           6124
## # ... with 183 more rows
```
7. Which country caught the most sardines (_Sardina pilchardus_) between the years 1990-2000?
#### Morocco ####


```r
new_fisheries %>%
  filter(asfis_species_name == "Sardina pilchardus") %>% 
  filter(between(year, 1990, 2000)) %>% 
  group_by(country) %>%
  summarize(sumsardinecatch = sum(catch, na.rm= T)) %>% 
  arrange(desc(sumsardinecatch))
```

```
## # A tibble: 37 x 2
##    country               sumsardinecatch
##    <fct>                           <dbl>
##  1 Morocco                          7470
##  2 Spain                            3507
##  3 Russian Federation               1639
##  4 Ukraine                          1030
##  5 France                            966
##  6 Portugal                          818
##  7 Greece                            528
##  8 Italy                             507
##  9 Serbia and Montenegro             478
## 10 Denmark                           477
## # ... with 27 more rows
```
…
#### Theragra chalcogramma ####


```r
new_fisheries %>% 
  filter(asfis_species_name != "Osteichthyes") %>%
  filter(between(year, 2008, 2012)) %>% 
  group_by(asfis_species_name) %>% 
  summarize(catchcount = sum(catch, na.rm= T)) %>% 
  arrange(desc(catchcount))
```

```
## # A tibble: 1,471 x 2
##    asfis_species_name    catchcount
##    <chr>                      <dbl>
##  1 Theragra chalcogramma      41075
##  2 Engraulis ringens          35523
##  3 Katsuwonus pelamis         32153
##  4 Trichiurus lepturus        30400
##  5 Clupea harengus            28527
##  6 Thunnus albacares          20119
##  7 Scomber japonicus          14723
##  8 Gadus morhua               13253
##  9 Thunnus alalunga           12019
## 10 Natantia                   11984
## # ... with 1,461 more rows
```
…
```r
new_fisheries %>% 
  filter(isscaap_taxonomic_group == "Sharks, rays, chimaeras") %>% 
  group_by(isscaap_taxonomic_group, year) %>% 
  summarise(sharkspluscaught = sum(catch, na.rm = T)) %>% 
  arrange(desc(sharkspluscaught))
```

```
## `summarise()` has grouped output by 'isscaap_taxonomic_group'. You can override using the `.groups` argument.
```

```
## # A tibble: 63 x 3
## # Groups:   isscaap_taxonomic_group [1]
##    isscaap_taxonomic_group  year sharkspluscaught
##    <chr>                   <dbl>            <dbl>
##  1 Sharks, rays, chimaeras  2009            13200
##  2 Sharks, rays, chimaeras  2008            12897
##  3 Sharks, rays, chimaeras  2010            12516
##  4 Sharks, rays, chimaeras  2011            12034
##  5 Sharks, rays, chimaeras  2012            11734
##  6 Sharks, rays, chimaeras  2007            11372
##  7 Sharks, rays, chimaeras  2005            10870
##  8 Sharks, rays, chimaeras  2006            10858
##  9 Sharks, rays, chimaeras  2004            10669
## 10 Sharks, rays, chimaeras  2003             9386
## # ... with 53 more rows
```
…
